…
### **Example**

Here we show an example of the application of ALPERC function. First, we
load the input data frames:

``` r
D_cand
```

    ## # A tibble: 50 x 7
    ##    rowid     A     B     C     D     E     F
    ##    <fct> <dbl> <dbl> <dbl> <dbl> <dbl> <dbl>
    ##  1 1       0.6   0.2   0     0.2   0.2   0  
    ##  2 2       0.2   0.2   0.6   1     0.6   0.4
    ##  3 3       1     0.4   0.8   1     0.4   0.6
    ##  4 4       0     0.6   1     0.6   0.6   0.2
    ##  5 5       0.4   0.2   0     0.4   0.8   0.2
    ##  6 6       0.4   0     0.4   0.8   0     0.6
    ##  7 7       0     0.8   0     0     0.4   0.8
    ##  8 8       0     0.2   0.4   0.6   0.4   0  
    ##  9 9       0.4   0.6   0.2   0.8   1     0  
    ## 10 10      0     0.8   0.2   1     0.8   0.8
    ## # ... with 40 more rows

``` r
sigma_cand
```

    ## # A tibble: 50 x 8
    ##    rowid X6.d.Borehole X6.d.OTL.circuit X6.d.Piston X6.d.Piston.Mod X6.d.Robot.arm X6.d.Rosenbrock.Function
    ##    <fct>         <dbl>            <dbl>       <dbl>           <dbl>          <dbl>                    <dbl>
    ##  1 1            0.0245           0.0327      0.0837          0.0836         0.148                    0.0607
    ##  2 2            0.0185           0.0440      0.0718          0.0589         0.0834                   0.0989
    ##  3 3            0.0582           0.0177      0.0549          0.0563         0.0869                   0.122 
    ##  4 4            0.0175           0.0989      0.0676          0.0626         0.100                    0.132 
    ##  5 5            0.0218           0.0342      0.0696          0.0679         0.110                    0.0639
    ##  6 6            0.0353           0.0411      0.0928          0.0715         0.0894                   0.0595
    ##  7 7            0.0345           0.0968      0.0486          0.0627         0.137                    0.0832
    ##  8 8            0.0132           0.0642      0.0900          0.0717         0.0877                   0.0661
    ##  9 9            0.0268           0.0753      0.0459          0.0498         0.0926                   0.145 
    ## 10 10           0.0289           0.0423      0.0378          0.0398         0.107                    0.123 
    ## # ... with 40 more rows, and 1 more variable: X6.d.Wing.weight <dbl>
…
    ## $strategy
    ## [1] "exploration"
    ## 
    ## $seed_rank
    ## [1] 2105
    ## 
    ## $n_permut_comparisons
    ## [1] 500
    ## 
    ## $varimp_distance
    ## [1] TRUE
    ## 
    ## $clust_choice
    ## # A tibble: 25 x 2
    ##    clusters     y
    ##    <fct>    <dbl>
    ##  1 1        0    
    ##  2 2        0.149
    ##  3 3        0.118
    ##  4 4        0.129
    ##  5 5        0.143
    ##  6 6        0.149
    ##  7 7        0.158
    ##  8 8        0.161
    ##  9 9        0.152
    ## 10 10       0.157
    ## # ... with 15 more rows
    ## 
    ## $nclust_criterion
    ## [1] "silhouette"
    ## 
    ## $best_nclust
    ## [1] 18
    ## 
    ## $LAMBDA
    ## # A tibble: 50 x 9
    ##    rowid     A     B     C     D     E     F  rank cluster
    ##    <chr> <dbl> <dbl> <dbl> <dbl> <dbl> <dbl> <int>   <int>
    ##  1 26      0.8   0.8   1     0     1     0.2    50      10
    ##  2 25      0     0.2   1     0.2   0.8   0.6    49       9
    ##  3 37      0.6   0.4   1     0     0.6   0.6    48      15
    ##  4 38      0.6   0     0     0.2   0.4   1      47      16
    ##  5 7       0     0.8   0     0     0.4   0.8    46       1
    ##  6 1       0.6   0.2   0     0.2   0.2   0      30       1
    ##  7 4       0     0.6   1     0.6   0.6   0.2    30       2
    ##  8 9       0.4   0.6   0.2   0.8   1     0      30       1
    ##  9 11      0.8   0     1     0.2   0.2   0.6    30       4
    ## 10 15      1     0.4   1     0.8   1     0.6    30       1
    ## # ... with 40 more rows
    ## 
    ## $D_add_j
…
